^C:\USERS\VINCENT\SOURCE\REPOS\FVTC\C++\ASSIGNMENTS\MADLIB\VLZ.MADLIB\VLZ.MADLIB\X64\DEBUG\MAIN.OBJ
/OUT:"C:\USERS\VINCENT\SOURCE\REPOS\FVTC\C++\ASSIGNMENTS\MADLIB\VLZ.MADLIB\X64\DEBUG\VLZ.MADLIB.EXE" /INCREMENTAL /NOLOGO KERNEL32.LIB USER32.LIB GDI32.LIB WINSPOOL.LIB COMDLG32.LIB ADVAPI32.LIB SHELL32.LIB OLE32.LIB OLEAUT32.LIB UUID.LIB ODBC32.LIB ODBCCP32.LIB /MANIFEST /MANIFESTUAC:"level='asInvoker' uiAccess='false'" /manifest:embed /DEBUG:FASTLINK /PDB:"C:\USERS\VINCENT\SOURCE\REPOS\FVTC\C++\ASSIGNMENTS\MADLIB\VLZ.MADLIB\X64\DEBUG\VLZ.MADLIB.PDB" /TLBID:1 /DYNAMICBASE /NXCOMPAT /IMPLIB:"C:\USERS\VINCENT\SOURCE\REPOS\FVTC\C++\ASSIGNMENTS\MADLIB\VLZ.MADLIB\X64\DEBUG\VLZ.MADLIB.LIB" /MACHINE:X64 X64\DEBUG\MAIN.OBJ
^C:\USERS\500160437\SOURCE\REPOS\MADLIB\VLZ.MADLIB\VLZ.MADLIB\X64\DEBUG\MAIN.OBJ
/OUT:"C:\USERS\500160437\SOURCE\REPOS\MADLIB\VLZ.MADLIB\X64\DEBUG\VLZ.MADLIB.EXE" /INCREMENTAL /NOLOGO KERNEL32.LIB USER32.LIB GDI32.LIB WINSPOOL.LIB COMDLG32.LIB ADVAPI32.LIB SHELL32.LIB OLE32.LIB OLEAUT32.LIB UUID.LIB ODBC32.LIB ODBCCP32.LIB /MANIFEST /MANIFESTUAC:"level='asInvoker' uiAccess='false'" /manifest:embed /DEBUG:FASTLINK /PDB:"C:\USERS\500160437\SOURCE\REPOS\MADLIB\VLZ.MADLIB\X64\DEBUG\VLZ.MADLIB.PDB" /TLBID:1 /DYNAMICBASE /NXCOMPAT /IMPLIB:"C:\USERS\500160437\SOURCE\REPOS\MADLIB\VLZ.MADLIB\X64\DEBUG\VLZ.MADLIB.LIB" /MACHINE:X64 X64\DEBUG\MAIN.OBJ
